"username","password"
"100017109","'7D3FHN"
"100107743","'NSM2X5"
"100109479","'X48K7J"
"100108768","'RLMY09"
"100013987","'ZXMGMH"
"100050127","'N41NM4"
"100131933","'ZCBNC9"
"100007750","'T09E15"
"100008775","'BRPBDJ"
"100107689","'9D38OS"
"100107863","'JTPUYN"
"100050075","'4J6GT2"
"100084085","'Y38WYZ"
