"_id","product_code","sku_code","voucher_code","expiry_date","reference_no","process_number","process_id","status"
"6142a3743feefa3334483410","alfa-100k","alfa-100k-001","1111121","2021-09-17 00:00:00","MCI-438021497830884486-DEV","MCI-438021480624283223","MCI-438021480624283223-010","RESERVED"
"6142a3743feefa333448340f","alfa-100k","alfa-100k-001","1111120","2021-09-17 00:00:00","MCI-438021497830884486-DEV","MCI-438021480624283223","MCI-438021480624283223-009","RESERVED"
"6142a3743feefa333448340e","alfa-100k","alfa-100k-001","1111119","2021-09-17 00:00:00","MCI-438021497830884486-DEV","MCI-438021480624283223","MCI-438021480624283223-008","RESERVED"
"6142a3743feefa333448340d","alfa-100k","alfa-100k-001","1111118","2021-09-17 00:00:00","MCI-438021497830884486-DEV","MCI-438021480624283223","MCI-438021480624283223-007","RESERVED"
"6142a3743feefa333448340c","alfa-100k","alfa-100k-001","1111117","2021-09-17 00:00:00","MCI-438021497830884486-DEV","MCI-438021480624283223","MCI-438021480624283223-006","RESERVED"
"6142a3743feefa333448340b","alfa-100k","alfa-100k-001","1111116","2021-09-17 00:00:00","MCI-438021497830884486-DEV","MCI-438021480624283223","MCI-438021480624283223-005","RESERVED"
"6142a3743feefa333448340a","alfa-100k","alfa-100k-001","1111115","2021-09-17 00:00:00","MCI-438021497830884486-DEV","MCI-438021480624283223","MCI-438021480624283223-004","RESERVED"
