[
    {
        "method": "GET",
        "version_path": "/v1",
        "route_url": "/category/report",
        "class_method": "CategoryController->find",
        "title": "Get category by filter"
    },
    {
        "method": "GET",
        "version_path": "/v1",
        "route_url": "/category/list",
        "class_method": "CategoryController->getCategoryList",
        "title": "Get category list"
    },
    {
        "method": "DELETE",
        "version_path": "/v1",
        "route_url": "/category/@key_or_code",
        "class_method": "CategoryController->remove",
        "title": "Delete Category By Id"
    },
    {
        "method": "PUT",
        "version_path": "/v1",
        "route_url": "/category/@key_or_code",
        "class_method": "CategoryController->update",
        "title": "Update Category By Id"
    },
    {
        "method": "POST",
        "version_path": "/v1",
        "route_url": "/category",
        "class_method": "CategoryController->insert",
        "title": "Add New Category"
    }
]