[
    {
        "method": "GET", 
        "version_path": "/v1",
        "route_url": "/member/all/report",
        "class_method": "MemberController->findAllReport",
        "title": "Get List of member"
    },
    {
        "method": "GET", 
        "version_path": "/v1",
        "route_url": "/member/find",
        "class_method": "MemberController->find",
        "title": "Get List of member"
    },
    {
        "method": "GET", 
        "version_path": "/v1",
        "route_url": "/member/detail",
        "class_method": "MemberController->getMemberDetail",
        "title": "Get List of member"
    },
    {
        "method": "POST", 
        "version_path": "/v1",
        "route_url": "/member/register",
        "class_method": "MemberController->registerNewMember",
        "title": "Add New member Account"
    },
    {
        "method": "POST", 
        "version_path": "/v1",
        "route_url": "/member/register/bulk",
        "class_method": "MemberController->registerNewMemberBulk",
        "title": "Add New member Account Bulk"
    },
    {
        "method": "PUT", 
        "version_path": "/v1",
        "route_url": "/member/change_password",
        "class_method": "MemberController->changeMemberPassword",
        "title": "Change member Password"
    },
    {
        "method": "PUT", 
        "version_path": "/v1",
        "route_url": "/member/additional_info/@method",
        "class_method": "MemberController->updateAdditionalInfo",
        "title": "Update member Account"
    },
    {
        "method": "PUT", 
        "version_path": "/v1",
        "route_url": "/member/update",
        "class_method": "MemberController->updateMember",
        "title": "Update member Account"
    },
    {
        "method": "PUT", 
        "version_path": "/v1",
        "route_url": "/member/mark_as_complete",
        "class_method": "MemberController->markStatusComplete",
        "title": "Update member Account"
    },
    {
        "method": "PUT", 
        "version_path": "/v1",
        "route_url": "/member/update/bulk",
        "class_method": "MemberController->updateMemberBulk",
        "title": "Update member Account Bulk"
    },
    {
        "method": "DELETE", 
        "version_path": "/v1",
        "route_url": "/member/delete/@username",
        "class_method": "MemberController->deleteMember",
        "title": "Delete member Account"
    }
]