[
    {
        "method": "GET", 
        "version_path": "/v1",
        "route_url": "/migrate/all/report",
        "class_method": "MigrateController->findAllReport",
        "title": "Get List of member"
    },
    {
        "method": "GET", 
        "version_path": "/v1",
        "route_url": "/migrate/quickwin",
        "class_method": "MigrateController->migrateFromQuickwin",
        "title": "Get List of member"
    }
]